%YAML 1.1
%TAG !u! tag:unity3d.com,2011:
--- !u!114 &11400000
MonoBehaviour:
  m_ObjectHideFlags: 0
  m_CorrespondingSourceObject: {fileID: 0}
  m_PrefabInstance: {fileID: 0}
  m_PrefabAsset: {fileID: 0}
  m_GameObject: {fileID: 0}
  m_Enabled: 1
  m_EditorHideFlags: 0
  m_Script: {fileID: 11500000, guid: bbb281ee3bf0b054c82ac2347e9e782c, type: 3}
  m_Name: Default Local Group
  m_EditorClassIdentifier: 
  m_GroupName: Default Local Group
  m_Data:
    m_SerializedData: []
  m_GUID: ea9711b463b37406b9144be7b4be0024
  m_SerializeEntries: []
  m_ReadOnly: 0
  m_Settings: {fileID: 11400000, guid: f6eb373c848874857bcb1faf7d0fa5e2, type: 2}
  m_SchemaSet:
    m_Schemas:
    - {fileID: 11400000, guid: f3b3fa305b53842a2a5a8e0d932c19e0, type: 2}
    - {fileID: 11400000, guid: ddc0fd906248745f3af2c0cedc4a433d, type: 2}
