%YAML 1.1
%TAG !u! tag:unity3d.com,2011:
--- !u!114 &11400000
MonoBehaviour:
  m_ObjectHideFlags: 0
  m_CorrespondingSourceObject: {fileID: 0}
  m_PrefabInstance: {fileID: 0}
  m_PrefabAsset: {fileID: 0}
  m_GameObject: {fileID: 0}
  m_Enabled: 1
  m_EditorHideFlags: 0
  m_Script: {fileID: 11500000, guid: bbb281ee3bf0b054c82ac2347e9e782c, type: 3}
  m_Name: Localization-String-Tables-English (en)
  m_EditorClassIdentifier: 
  m_GroupName: Localization-String-Tables-English (en)
  m_Data:
    m_SerializedData: []
  m_GUID: 9a570b09a9d574579994a5750dd38868
  m_SerializeEntries:
  - m_GUID: 768e47810b3764abea7f72e2123fdbbd
    m_Address: UI_en
    m_ReadOnly: 1
    m_SerializedLabels:
    - Locale-en
  - m_GUID: 7aa2983b56a124e8faf84a084a114003
    m_Address: Dialogs_en
    m_ReadOnly: 1
    m_SerializedLabels:
    - Locale-en
  m_ReadOnly: 1
  m_Settings: {fileID: 11400000, guid: f6eb373c848874857bcb1faf7d0fa5e2, type: 2}
  m_SchemaSet:
    m_Schemas:
    - {fileID: 11400000, guid: 5f0ae83b4851a40ef84c64648ad42c5f, type: 2}
    - {fileID: 11400000, guid: 0bf5a2857ff47484590af3b3dd5e3b87, type: 2}
