{
    "name": "Stats",
    "rootNamespace": "Stats",
    "references": [],
    "includePlatforms": [],
    "excludePlatforms": [],
    "allowUnsafeCode": false,
    "overrideReferences": true,
    "precompiledReferences": [
        "protobuf-net.dll"
    ],
    "autoReferenced": true,
    "defineConstraints": [],
    "versionDefines": [
        {
            "name": "Unity",
            "expression": "",
            "define": "UNITY"
        }
    ],
    "noEngineReferences": false
}