%YAML 1.1
%TAG !u! tag:unity3d.com,2011:
--- !u!114 &11400000
MonoBehaviour:
  m_ObjectHideFlags: 0
  m_CorrespondingSourceObject: {fileID: 0}
  m_PrefabInstance: {fileID: 0}
  m_PrefabAsset: {fileID: 0}
  m_GameObject: {fileID: 0}
  m_Enabled: 1
  m_EditorHideFlags: 0
  m_Script: {fileID: 11500000, guid: 3888c1c1b587a654a919e0f68b03567e, type: 3}
  m_Name: SheetsServiceProvider
  m_EditorClassIdentifier: 
  m_ApiKey: 
  m_ClientId: 730064565754-le5jg74ms0ulo48qqck6kbtbe4n8flte.apps.googleusercontent.com
  m_ClientSecret: -2LuhAUGM5TkCGtaMm1re0kD
  m_AuthenticationType: 1
  m_ApplicationName: ATB
  m_NewSheetProperties:
    m_HeaderForegroundColor: {r: 0.8941177, g: 0.8941177, b: 0.8941177, a: 1}
    m_HeaderBackgroundColor: {r: 0.2196079, g: 0.2196079, b: 0.2196079, a: 1}
    m_DuplicateKeyColor: {r: 0.8745098, g: 0.2240707, b: 0.1921569, a: 1}
    m_HighlightDuplicateKeys: 1
    m_FreezeTitleRowAndKeyColumn: 1
