%YAML 1.1
%TAG !u! tag:unity3d.com,2011:
--- !u!114 &11400000
MonoBehaviour:
  m_ObjectHideFlags: 0
  m_CorrespondingSourceObject: {fileID: 0}
  m_PrefabInstance: {fileID: 0}
  m_PrefabAsset: {fileID: 0}
  m_GameObject: {fileID: 0}
  m_Enabled: 1
  m_EditorHideFlags: 0
  m_Script: {fileID: 11500000, guid: e9620f8c34305754d8cc9a7e49e852d9, type: 3}
  m_Name: LocalizedUI_ru
  m_EditorClassIdentifier: 
  m_LocaleId:
    m_Code: ru
  m_SharedData: {fileID: 11400000, guid: 2ec94e0fdd412432891e7a5299333360, type: 2}
  m_Metadata:
    m_Items: []
  m_TableData:
  - m_Id: 124225839104
    m_Localized: "\u041E\u0436\u0438\u0434\u0430\u043D\u0438\u0435"
    m_Metadata:
      m_Items: []
  - m_Id: 166827384832
    m_Localized: "\u041F\u0440\u0438\u0435\u043C"
    m_Metadata:
      m_Items: []
  references:
    version: 1
