%YAML 1.1
%TAG !u! tag:unity3d.com,2011:
--- !u!1045 &1
EditorBuildSettings:
  m_ObjectHideFlags: 0
  serializedVersion: 2
  m_Scenes:
  - enabled: 1
    path: Assets/EpicMerge/Scenes/EpicMerge.unity
    guid: 8fb887cfe25be496cb530ed339eaf89c
  m_configObjects:
    com.unity.addressableassets: {fileID: 11400000, guid: b5db15b156aff491faaf04175c6643ee, type: 2}
    com.unity.localization.settings: {fileID: 11400000, guid: 9c6662e6862674dfabf48a4e4a46da31, type: 2}
